info face="JMH Typewriter-Bold(1)" size=12 bold=0 italic=0 charset="" unicode=1 stretchH=100 smooth=1 aa=2 padding=1,1,1,1 spacing=0,0
common lineHeight=32 base=24 scaleW=506 scaleH=128 pages=1 packed=0 alphaChnl=0 redChnl=0 greenChnl=0 blueChnl=0
page id=0 file="JMH Typewriter-Bold(1).png"
chars count=193
char id=0     x=0    y=0    width=0    height=0    xoffset=-1   yoffset=24   xadvance=0    page=0    chnl=0
char id=32    x=0    y=0    width=0    height=0    xoffset=-1   yoffset=-1   xadvance=11   page=0    chnl=0
char id=33    x=360  y=29   width=5    height=20   xoffset=0    yoffset=4    xadvance=6    page=0    chnl=0
char id=34    x=74   y=115  width=9    height=10   xoffset=-1   yoffset=3    xadvance=10   page=0    chnl=0
char id=35    x=111  y=2    width=15   height=24   xoffset=0    yoffset=4    xadvance=17   page=0    chnl=0
char id=36    x=10   y=2    width=12   height=25   xoffset=-1   yoffset=3    xadvance=13   page=0    chnl=0
char id=37    x=119  y=29   width=15   height=22   xoffset=0    yoffset=3    xadvance=17   page=0    chnl=0
char id=38    x=449  y=54   width=15   height=19   xoffset=0    yoffset=5    xadvance=17   page=0    chnl=0
char id=39    x=108  y=115  width=5    height=9    xoffset=-1   yoffset=4    xadvance=5    page=0    chnl=0
char id=40    x=57   y=2    width=8    height=24   xoffset=0    yoffset=4    xadvance=10   page=0    chnl=0
char id=41    x=84   y=2    width=8    height=24   xoffset=-1   yoffset=3    xadvance=9    page=0    chnl=0
char id=42    x=214  y=95   width=15   height=14   xoffset=0    yoffset=4    xadvance=16   page=0    chnl=0
char id=43    x=430  y=54   width=17   height=19   xoffset=0    yoffset=5    xadvance=19   page=0    chnl=0
char id=44    x=85   y=115  width=5    height=9    xoffset=-1   yoffset=20   xadvance=5    page=0    chnl=0
char id=45    x=247  y=115  width=11   height=4    xoffset=0    yoffset=14   xadvance=12   page=0    chnl=0
char id=46    x=182  y=115  width=5    height=5    xoffset=0    yoffset=20   xadvance=6    page=0    chnl=0
char id=47    x=347  y=2    width=10   height=23   xoffset=0    yoffset=4    xadvance=11   page=0    chnl=0
char id=48    x=346  y=29   width=12   height=20   xoffset=0    yoffset=4    xadvance=14   page=0    chnl=0
char id=49    x=233  y=29   width=12   height=20   xoffset=-1   yoffset=4    xadvance=13   page=0    chnl=0
char id=50    x=247  y=29   width=12   height=20   xoffset=0    yoffset=4    xadvance=13   page=0    chnl=0
char id=51    x=261  y=29   width=12   height=20   xoffset=0    yoffset=4    xadvance=14   page=0    chnl=0
char id=52    x=275  y=29   width=14   height=20   xoffset=0    yoffset=4    xadvance=16   page=0    chnl=0
char id=53    x=291  y=29   width=12   height=20   xoffset=-1   yoffset=4    xadvance=13   page=0    chnl=0
char id=54    x=305  y=29   width=12   height=20   xoffset=0    yoffset=4    xadvance=14   page=0    chnl=0
char id=55    x=320  y=54   width=11   height=19   xoffset=0    yoffset=5    xadvance=13   page=0    chnl=0
char id=56    x=319  y=29   width=12   height=20   xoffset=0    yoffset=4    xadvance=14   page=0    chnl=0
char id=57    x=333  y=29   width=11   height=20   xoffset=0    yoffset=4    xadvance=13   page=0    chnl=0
char id=58    x=499  y=54   width=4    height=12   xoffset=0    yoffset=13   xadvance=5    page=0    chnl=0
char id=59    x=497  y=75   width=6    height=16   xoffset=-1   yoffset=12   xadvance=6    page=0    chnl=0
char id=60    x=491  y=95   width=9    height=12   xoffset=-2   yoffset=10   xadvance=9    page=0    chnl=0
char id=61    x=92   y=115  width=14   height=9    xoffset=0    yoffset=10   xadvance=16   page=0    chnl=0
char id=62    x=467  y=95   width=9    height=12   xoffset=-1   yoffset=10   xadvance=9    page=0    chnl=0
char id=63    x=333  y=54   width=9    height=19   xoffset=0    yoffset=5    xadvance=11   page=0    chnl=0
char id=64    x=94   y=2    width=15   height=24   xoffset=0    yoffset=4    xadvance=17   page=0    chnl=0
char id=65    x=466  y=54   width=16   height=18   xoffset=0    yoffset=6    xadvance=18   page=0    chnl=0
char id=66    x=484  y=54   width=13   height=18   xoffset=0    yoffset=6    xadvance=15   page=0    chnl=0
char id=67    x=0    y=75   width=13   height=18   xoffset=0    yoffset=6    xadvance=15   page=0    chnl=0
char id=68    x=15   y=75   width=15   height=18   xoffset=-1   yoffset=6    xadvance=16   page=0    chnl=0
char id=69    x=32   y=75   width=15   height=18   xoffset=-1   yoffset=6    xadvance=15   page=0    chnl=0
char id=70    x=49   y=75   width=15   height=18   xoffset=-1   yoffset=6    xadvance=16   page=0    chnl=0
char id=71    x=66   y=75   width=14   height=18   xoffset=0    yoffset=6    xadvance=16   page=0    chnl=0
char id=72    x=469  y=29   width=15   height=19   xoffset=0    yoffset=5    xadvance=17   page=0    chnl=0
char id=73    x=98   y=75   width=12   height=18   xoffset=0    yoffset=6    xadvance=14   page=0    chnl=0
char id=74    x=486  y=29   width=14   height=19   xoffset=0    yoffset=5    xadvance=16   page=0    chnl=0
char id=75    x=112  y=75   width=16   height=18   xoffset=0    yoffset=6    xadvance=18   page=0    chnl=0
char id=76    x=0    y=54   width=16   height=19   xoffset=-1   yoffset=5    xadvance=16   page=0    chnl=0
char id=77    x=146  y=75   width=18   height=18   xoffset=-1   yoffset=6    xadvance=19   page=0    chnl=0
char id=78    x=166  y=75   width=15   height=18   xoffset=0    yoffset=6    xadvance=16   page=0    chnl=0
char id=79    x=18   y=54   width=14   height=19   xoffset=0    yoffset=5    xadvance=16   page=0    chnl=0
char id=80    x=34   y=54   width=14   height=19   xoffset=-1   yoffset=5    xadvance=15   page=0    chnl=0
char id=81    x=40   y=2    width=15   height=24   xoffset=0    yoffset=6    xadvance=17   page=0    chnl=0
char id=82    x=183  y=75   width=17   height=18   xoffset=-1   yoffset=6    xadvance=18   page=0    chnl=0
char id=83    x=64   y=54   width=12   height=19   xoffset=0    yoffset=5    xadvance=14   page=0    chnl=0
char id=84    x=78   y=54   width=15   height=19   xoffset=0    yoffset=5    xadvance=16   page=0    chnl=0
char id=85    x=95   y=54   width=15   height=19   xoffset=0    yoffset=5    xadvance=17   page=0    chnl=0
char id=86    x=112  y=54   width=16   height=19   xoffset=0    yoffset=5    xadvance=18   page=0    chnl=0
char id=87    x=202  y=75   width=19   height=18   xoffset=0    yoffset=6    xadvance=20   page=0    chnl=0
char id=88    x=130  y=54   width=16   height=19   xoffset=0    yoffset=5    xadvance=18   page=0    chnl=0
char id=89    x=148  y=54   width=15   height=19   xoffset=0    yoffset=5    xadvance=17   page=0    chnl=0
char id=90    x=165  y=54   width=14   height=19   xoffset=0    yoffset=5    xadvance=15   page=0    chnl=0
char id=91    x=384  y=29   width=7    height=20   xoffset=-1   yoffset=5    xadvance=7    page=0    chnl=0
char id=92    x=359  y=2    width=10   height=23   xoffset=-1   yoffset=4    xadvance=10   page=0    chnl=0
char id=93    x=417  y=75   width=8    height=18   xoffset=0    yoffset=6    xadvance=7    page=0    chnl=0
char id=94    x=153  y=115  width=6    height=7    xoffset=-1   yoffset=-1   xadvance=6    page=0    chnl=0
char id=95    x=203  y=115  width=17   height=4    xoffset=0    yoffset=27   xadvance=19   page=0    chnl=0
char id=96    x=144  y=115  width=7    height=7    xoffset=-1   yoffset=-1   xadvance=7    page=0    chnl=0
char id=97    x=304  y=95   width=14   height=13   xoffset=-1   yoffset=11   xadvance=15   page=0    chnl=0
char id=98    x=181  y=54   width=14   height=19   xoffset=0    yoffset=5    xadvance=16   page=0    chnl=0
char id=99    x=320  y=95   width=13   height=13   xoffset=-1   yoffset=11   xadvance=14   page=0    chnl=0
char id=100   x=197  y=54   width=13   height=19   xoffset=0    yoffset=5    xadvance=15   page=0    chnl=0
char id=101   x=335  y=95   width=12   height=13   xoffset=0    yoffset=11   xadvance=14   page=0    chnl=0
char id=102   x=202  y=29   width=14   height=20   xoffset=-1   yoffset=4    xadvance=14   page=0    chnl=0
char id=103   x=212  y=54   width=14   height=19   xoffset=-1   yoffset=11   xadvance=15   page=0    chnl=0
char id=104   x=228  y=54   width=15   height=19   xoffset=0    yoffset=5    xadvance=17   page=0    chnl=0
char id=105   x=251  y=75   width=12   height=18   xoffset=0    yoffset=6    xadvance=14   page=0    chnl=0
char id=106   x=335  y=2    width=10   height=23   xoffset=0    yoffset=7    xadvance=12   page=0    chnl=0
char id=107   x=245  y=54   width=15   height=19   xoffset=0    yoffset=5    xadvance=17   page=0    chnl=0
char id=108   x=262  y=54   width=11   height=19   xoffset=0    yoffset=5    xadvance=13   page=0    chnl=0
char id=109   x=349  y=95   width=18   height=13   xoffset=-1   yoffset=11   xadvance=19   page=0    chnl=0
char id=110   x=369  y=95   width=15   height=13   xoffset=0    yoffset=11   xadvance=17   page=0    chnl=0
char id=111   x=386  y=95   width=13   height=13   xoffset=0    yoffset=11   xadvance=15   page=0    chnl=0
char id=112   x=275  y=54   width=13   height=19   xoffset=-1   yoffset=11   xadvance=14   page=0    chnl=0
char id=113   x=218  y=29   width=13   height=20   xoffset=0    yoffset=10   xadvance=15   page=0    chnl=0
char id=114   x=231  y=95   width=13   height=14   xoffset=0    yoffset=10   xadvance=15   page=0    chnl=0
char id=115   x=200  y=95   width=12   height=15   xoffset=-1   yoffset=10   xadvance=13   page=0    chnl=0
char id=116   x=138  y=95   width=12   height=16   xoffset=0    yoffset=8    xadvance=14   page=0    chnl=0
char id=117   x=246  y=95   width=15   height=14   xoffset=0    yoffset=11   xadvance=17   page=0    chnl=0
char id=118   x=263  y=95   width=16   height=14   xoffset=0    yoffset=11   xadvance=17   page=0    chnl=0
char id=119   x=401  y=95   width=17   height=13   xoffset=0    yoffset=11   xadvance=19   page=0    chnl=0
char id=120   x=420  y=95   width=15   height=13   xoffset=0    yoffset=11   xadvance=16   page=0    chnl=0
char id=121   x=303  y=54   width=15   height=19   xoffset=0    yoffset=11   xadvance=16   page=0    chnl=0
char id=122   x=437  y=95   width=11   height=13   xoffset=0    yoffset=11   xadvance=13   page=0    chnl=0
char id=123   x=393  y=29   width=8    height=20   xoffset=-1   yoffset=5    xadvance=8    page=0    chnl=0
char id=124   x=4    y=2    width=4    height=25   xoffset=-1   yoffset=3    xadvance=4    page=0    chnl=0
char id=125   x=427  y=75   width=8    height=18   xoffset=0    yoffset=6    xadvance=9    page=0    chnl=0
char id=126   x=189  y=115  width=12   height=4    xoffset=0    yoffset=13   xadvance=13   page=0    chnl=0
char id=161   x=437  y=29   width=4    height=20   xoffset=0    yoffset=5    xadvance=6    page=0    chnl=0
char id=162   x=443  y=29   width=13   height=20   xoffset=-1   yoffset=7    xadvance=13   page=0    chnl=0
char id=163   x=122  y=95   width=14   height=16   xoffset=0    yoffset=8    xadvance=15   page=0    chnl=0
char id=164   x=182  y=95   width=16   height=16   xoffset=-1   yoffset=9    xadvance=17   page=0    chnl=0
char id=165   x=399  y=54   width=15   height=19   xoffset=0    yoffset=5    xadvance=17   page=0    chnl=0
char id=166   x=502  y=29   width=3    height=19   xoffset=0    yoffset=5    xadvance=5    page=0    chnl=0
char id=167   x=170  y=95   width=10   height=16   xoffset=-1   yoffset=9    xadvance=11   page=0    chnl=0
char id=168   x=235  y=115  width=10   height=4    xoffset=0    yoffset=1    xadvance=11   page=0    chnl=0
char id=169   x=152  y=95   width=16   height=16   xoffset=0    yoffset=7    xadvance=17   page=0    chnl=0
char id=170   x=33   y=115  width=8    height=11   xoffset=0    yoffset=5    xadvance=10   page=0    chnl=0
char id=171   x=0    y=115  width=15   height=12   xoffset=-1   yoffset=10   xadvance=15   page=0    chnl=0
char id=172   x=115  y=115  width=10   height=8    xoffset=0    yoffset=14   xadvance=12   page=0    chnl=0
char id=173   x=222  y=115  width=11   height=4    xoffset=0    yoffset=14   xadvance=12   page=0    chnl=0
char id=174   x=104  y=95   width=16   height=16   xoffset=0    yoffset=7    xadvance=17   page=0    chnl=0
char id=175   x=260  y=115  width=12   height=3    xoffset=0    yoffset=3    xadvance=14   page=0    chnl=0
char id=176   x=175  y=115  width=5    height=5    xoffset=0    yoffset=0    xadvance=6    page=0    chnl=0
char id=177   x=89   y=95   width=13   height=16   xoffset=0    yoffset=8    xadvance=14   page=0    chnl=0
char id=178   x=25   y=115  width=6    height=11   xoffset=0    yoffset=4    xadvance=7    page=0    chnl=0
char id=179   x=17   y=115  width=6    height=11   xoffset=-1   yoffset=4    xadvance=7    page=0    chnl=0
char id=180   x=135  y=115  width=7    height=7    xoffset=-1   yoffset=-1   xadvance=7    page=0    chnl=0
char id=181   x=61   y=95   width=11   height=17   xoffset=-1   yoffset=11   xadvance=12   page=0    chnl=0
char id=182   x=371  y=2    width=11   height=23   xoffset=-1   yoffset=6    xadvance=12   page=0    chnl=0
char id=183   x=168  y=115  width=5    height=5    xoffset=-1   yoffset=11   xadvance=5    page=0    chnl=0
char id=184   x=127  y=115  width=6    height=7    xoffset=3    yoffset=22   xadvance=14   page=0    chnl=0
char id=185   x=53   y=115  width=6    height=10   xoffset=0    yoffset=5    xadvance=7    page=0    chnl=0
char id=186   x=43   y=115  width=8    height=10   xoffset=0    yoffset=5    xadvance=10   page=0    chnl=0
char id=187   x=450  y=95   width=15   height=12   xoffset=-1   yoffset=10   xadvance=15   page=0    chnl=0
char id=188   x=384  y=2    width=16   height=23   xoffset=-1   yoffset=4    xadvance=16   page=0    chnl=0
char id=189   x=402  y=2    width=15   height=23   xoffset=-1   yoffset=4    xadvance=16   page=0    chnl=0
char id=190   x=419  y=2    width=15   height=23   xoffset=0    yoffset=4    xadvance=17   page=0    chnl=0
char id=191   x=458  y=29   width=9    height=20   xoffset=0    yoffset=6    xadvance=11   page=0    chnl=0
char id=192   x=436  y=2    width=16   height=23   xoffset=0    yoffset=1    xadvance=18   page=0    chnl=0
char id=193   x=454  y=2    width=16   height=23   xoffset=0    yoffset=1    xadvance=18   page=0    chnl=0
char id=194   x=472  y=2    width=16   height=23   xoffset=0    yoffset=1    xadvance=18   page=0    chnl=0
char id=195   x=136  y=29   width=16   height=22   xoffset=0    yoffset=2    xadvance=18   page=0    chnl=0
char id=196   x=154  y=29   width=16   height=22   xoffset=0    yoffset=2    xadvance=18   page=0    chnl=0
char id=197   x=0    y=29   width=16   height=23   xoffset=0    yoffset=1    xadvance=18   page=0    chnl=0
char id=198   x=376  y=54   width=21   height=19   xoffset=0    yoffset=5    xadvance=23   page=0    chnl=0
char id=199   x=490  y=2    width=13   height=23   xoffset=0    yoffset=6    xadvance=15   page=0    chnl=0
char id=200   x=128  y=2    width=15   height=24   xoffset=-1   yoffset=0    xadvance=15   page=0    chnl=0
char id=201   x=145  y=2    width=15   height=24   xoffset=-1   yoffset=0    xadvance=15   page=0    chnl=0
char id=202   x=162  y=2    width=15   height=24   xoffset=-1   yoffset=0    xadvance=15   page=0    chnl=0
char id=203   x=179  y=2    width=15   height=24   xoffset=-1   yoffset=0    xadvance=15   page=0    chnl=0
char id=204   x=196  y=2    width=12   height=24   xoffset=0    yoffset=0    xadvance=14   page=0    chnl=0
char id=205   x=210  y=2    width=12   height=24   xoffset=0    yoffset=0    xadvance=14   page=0    chnl=0
char id=206   x=224  y=2    width=12   height=24   xoffset=0    yoffset=0    xadvance=14   page=0    chnl=0
char id=207   x=172  y=29   width=12   height=22   xoffset=0    yoffset=2    xadvance=14   page=0    chnl=0
char id=208   x=308  y=75   width=15   height=18   xoffset=-1   yoffset=6    xadvance=16   page=0    chnl=0
char id=209   x=18   y=29   width=15   height=23   xoffset=0    yoffset=1    xadvance=16   page=0    chnl=0
char id=210   x=238  y=2    width=14   height=24   xoffset=0    yoffset=0    xadvance=16   page=0    chnl=0
char id=211   x=254  y=2    width=14   height=24   xoffset=0    yoffset=0    xadvance=16   page=0    chnl=0
char id=212   x=270  y=2    width=14   height=24   xoffset=0    yoffset=0    xadvance=16   page=0    chnl=0
char id=213   x=35   y=29   width=14   height=23   xoffset=0    yoffset=1    xadvance=16   page=0    chnl=0
char id=214   x=186  y=29   width=14   height=22   xoffset=0    yoffset=2    xadvance=16   page=0    chnl=0
char id=215   x=61   y=115  width=11   height=10   xoffset=-1   yoffset=11   xadvance=10   page=0    chnl=0
char id=216   x=286  y=2    width=14   height=24   xoffset=0    yoffset=3    xadvance=16   page=0    chnl=0
char id=217   x=51   y=29   width=15   height=23   xoffset=0    yoffset=1    xadvance=17   page=0    chnl=0
char id=218   x=68   y=29   width=15   height=23   xoffset=0    yoffset=1    xadvance=17   page=0    chnl=0
char id=219   x=102  y=29   width=15   height=23   xoffset=0    yoffset=1    xadvance=17   page=0    chnl=0
char id=220   x=85   y=29   width=15   height=23   xoffset=0    yoffset=1    xadvance=17   page=0    chnl=0
char id=221   x=302  y=2    width=15   height=24   xoffset=0    yoffset=0    xadvance=17   page=0    chnl=0
char id=222   x=325  y=75   width=14   height=18   xoffset=0    yoffset=6    xadvance=16   page=0    chnl=0
char id=223   x=296  y=75   width=10   height=18   xoffset=0    yoffset=6    xadvance=12   page=0    chnl=0
char id=224   x=401  y=75   width=14   height=18   xoffset=-1   yoffset=6    xadvance=15   page=0    chnl=0
char id=225   x=451  y=75   width=14   height=18   xoffset=-1   yoffset=6    xadvance=15   page=0    chnl=0
char id=226   x=0    y=95   width=14   height=18   xoffset=-1   yoffset=6    xadvance=15   page=0    chnl=0
char id=227   x=30   y=95   width=14   height=17   xoffset=-1   yoffset=7    xadvance=15   page=0    chnl=0
char id=228   x=82   y=75   width=14   height=18   xoffset=-1   yoffset=6    xadvance=15   page=0    chnl=0
char id=229   x=130  y=75   width=14   height=18   xoffset=-1   yoffset=6    xadvance=15   page=0    chnl=0
char id=230   x=281  y=95   width=21   height=13   xoffset=0    yoffset=11   xadvance=23   page=0    chnl=0
char id=231   x=46   y=95   width=13   height=17   xoffset=-1   yoffset=11   xadvance=14   page=0    chnl=0
char id=232   x=223  y=75   width=12   height=18   xoffset=0    yoffset=6    xadvance=14   page=0    chnl=0
char id=233   x=467  y=75   width=12   height=18   xoffset=0    yoffset=6    xadvance=14   page=0    chnl=0
char id=234   x=437  y=75   width=12   height=18   xoffset=0    yoffset=6    xadvance=14   page=0    chnl=0
char id=235   x=265  y=75   width=12   height=18   xoffset=0    yoffset=6    xadvance=14   page=0    chnl=0
char id=236   x=50   y=54   width=12   height=19   xoffset=0    yoffset=5    xadvance=14   page=0    chnl=0
char id=237   x=416  y=54   width=12   height=19   xoffset=0    yoffset=5    xadvance=14   page=0    chnl=0
char id=238   x=16   y=95   width=12   height=18   xoffset=0    yoffset=6    xadvance=14   page=0    chnl=0
char id=239   x=237  y=75   width=12   height=18   xoffset=0    yoffset=6    xadvance=14   page=0    chnl=0
char id=240   x=290  y=54   width=11   height=19   xoffset=0    yoffset=5    xadvance=13   page=0    chnl=0
char id=241   x=279  y=75   width=15   height=18   xoffset=0    yoffset=6    xadvance=17   page=0    chnl=0
char id=242   x=341  y=75   width=13   height=18   xoffset=0    yoffset=6    xadvance=15   page=0    chnl=0
char id=243   x=356  y=75   width=13   height=18   xoffset=0    yoffset=6    xadvance=15   page=0    chnl=0
char id=244   x=371  y=75   width=13   height=18   xoffset=0    yoffset=6    xadvance=15   page=0    chnl=0
char id=245   x=74   y=95   width=13   height=17   xoffset=0    yoffset=7    xadvance=15   page=0    chnl=0
char id=246   x=386  y=75   width=13   height=18   xoffset=0    yoffset=6    xadvance=15   page=0    chnl=0
char id=247   x=478  y=95   width=11   height=12   xoffset=0    yoffset=11   xadvance=12   page=0    chnl=0
char id=248   x=361  y=54   width=13   height=19   xoffset=0    yoffset=8    xadvance=15   page=0    chnl=0
char id=249   x=420  y=29   width=15   height=20   xoffset=0    yoffset=5    xadvance=17   page=0    chnl=0
char id=250   x=403  y=29   width=15   height=20   xoffset=0    yoffset=5    xadvance=17   page=0    chnl=0
char id=251   x=367  y=29   width=15   height=20   xoffset=0    yoffset=5    xadvance=17   page=0    chnl=0
char id=252   x=344  y=54   width=15   height=19   xoffset=0    yoffset=6    xadvance=17   page=0    chnl=0
char id=253   x=67   y=2    width=15   height=24   xoffset=0    yoffset=6    xadvance=16   page=0    chnl=0
char id=254   x=24   y=2    width=14   height=25   xoffset=0    yoffset=5    xadvance=16   page=0    chnl=0
char id=255   x=319  y=2    width=14   height=23   xoffset=0    yoffset=7    xadvance=16   page=0    chnl=0
char id=8226  x=161  y=115  width=5    height=5    xoffset=0    yoffset=11   xadvance=6    page=0    chnl=0
char id=8364  x=481  y=75   width=14   height=18   xoffset=0    yoffset=6    xadvance=15   page=0    chnl=0
kernings count=538
kerning first=36 second=51 amount=-1
kerning first=36 second=53 amount=-1
kerning first=36 second=55 amount=-1
kerning first=44 second=48 amount=-1
kerning first=44 second=52 amount=-6
kerning first=44 second=54 amount=-1
kerning first=44 second=55 amount=-1
kerning first=44 second=56 amount=-1
kerning first=46 second=48 amount=-2
kerning first=46 second=52 amount=-6
kerning first=46 second=54 amount=-1
kerning first=46 second=55 amount=-1
kerning first=46 second=56 amount=-1
kerning first=47 second=48 amount=-1
kerning first=47 second=50 amount=-1
kerning first=47 second=51 amount=-1
kerning first=47 second=52 amount=-3
kerning first=47 second=53 amount=-1
kerning first=47 second=54 amount=-2
kerning first=47 second=56 amount=-1
kerning first=47 second=57 amount=-1
kerning first=47 second=65 amount=-4
kerning first=47 second=67 amount=-2
kerning first=47 second=71 amount=-2
kerning first=47 second=74 amount=-3
kerning first=47 second=79 amount=-1
kerning first=47 second=81 amount=-1
kerning first=47 second=83 amount=-1
kerning first=47 second=97 amount=-3
kerning first=47 second=99 amount=-3
kerning first=47 second=100 amount=-3
kerning first=47 second=101 amount=-3
kerning first=47 second=102 amount=-2
kerning first=47 second=103 amount=-3
kerning first=47 second=105 amount=-2
kerning first=47 second=106 amount=-4
kerning first=47 second=109 amount=-2
kerning first=47 second=110 amount=-2
kerning first=47 second=111 amount=-3
kerning first=47 second=112 amount=-2
kerning first=47 second=113 amount=-3
kerning first=47 second=114 amount=-2
kerning first=47 second=115 amount=-2
kerning first=47 second=116 amount=-2
kerning first=47 second=117 amount=-2
kerning first=47 second=118 amount=-2
kerning first=47 second=119 amount=-2
kerning first=47 second=120 amount=-2
kerning first=47 second=121 amount=-2
kerning first=47 second=122 amount=-2
kerning first=48 second=44 amount=-2
kerning first=48 second=46 amount=-2
kerning first=48 second=47 amount=-2
kerning first=48 second=53 amount=-1
kerning first=48 second=55 amount=-1
kerning first=49 second=183 amount=-3
kerning first=50 second=55 amount=-1
kerning first=50 second=183 amount=-1
kerning first=51 second=44 amount=-1
kerning first=51 second=46 amount=-1
kerning first=51 second=55 amount=-1
kerning first=51 second=183 amount=-2
kerning first=52 second=51 amount=-1
kerning first=52 second=53 amount=-1
kerning first=52 second=55 amount=-2
kerning first=52 second=57 amount=-2
kerning first=52 second=183 amount=-3
kerning first=53 second=44 amount=-1
kerning first=53 second=46 amount=-2
kerning first=53 second=51 amount=-1
kerning first=53 second=53 amount=-1
kerning first=53 second=55 amount=-1
kerning first=53 second=57 amount=-1
kerning first=53 second=183 amount=-1
kerning first=54 second=44 amount=-1
kerning first=54 second=46 amount=-1
kerning first=54 second=51 amount=-1
kerning first=54 second=53 amount=-1
kerning first=54 second=55 amount=-1
kerning first=54 second=183 amount=-1
kerning first=55 second=44 amount=-4
kerning first=55 second=46 amount=-4
kerning first=55 second=47 amount=-4
kerning first=55 second=48 amount=-1
kerning first=55 second=51 amount=-1
kerning first=55 second=52 amount=-2
kerning first=55 second=53 amount=-1
kerning first=55 second=54 amount=-1
kerning first=55 second=183 amount=-2
kerning first=56 second=44 amount=-1
kerning first=56 second=46 amount=-1
kerning first=56 second=47 amount=-1
kerning first=56 second=51 amount=-1
kerning first=56 second=53 amount=-1
kerning first=56 second=55 amount=-1
kerning first=56 second=183 amount=-2
kerning first=57 second=44 amount=-2
kerning first=57 second=46 amount=-3
kerning first=57 second=47 amount=-2
kerning first=57 second=51 amount=-1
kerning first=57 second=53 amount=-1
kerning first=57 second=55 amount=-1
kerning first=65 second=63 amount=-2
kerning first=65 second=67 amount=-1
kerning first=65 second=71 amount=-1
kerning first=65 second=79 amount=-1
kerning first=65 second=81 amount=-1
kerning first=65 second=84 amount=-2
kerning first=65 second=85 amount=-2
kerning first=65 second=86 amount=-5
kerning first=65 second=87 amount=-3
kerning first=65 second=89 amount=-3
kerning first=65 second=98 amount=-1
kerning first=65 second=99 amount=-1
kerning first=65 second=100 amount=-1
kerning first=65 second=101 amount=-1
kerning first=65 second=111 amount=-1
kerning first=65 second=112 amount=-1
kerning first=65 second=113 amount=-1
kerning first=65 second=116 amount=-1
kerning first=65 second=117 amount=-2
kerning first=65 second=118 amount=-3
kerning first=65 second=119 amount=-3
kerning first=65 second=121 amount=-1
kerning first=66 second=44 amount=-1
kerning first=66 second=46 amount=-1
kerning first=66 second=47 amount=-1
kerning first=66 second=63 amount=-1
kerning first=66 second=65 amount=-1
kerning first=66 second=84 amount=-1
kerning first=66 second=85 amount=-1
kerning first=66 second=86 amount=-2
kerning first=66 second=87 amount=-1
kerning first=66 second=89 amount=-2
kerning first=66 second=114 amount=-1
kerning first=66 second=121 amount=-1
kerning first=67 second=47 amount=-1
kerning first=68 second=44 amount=-2
kerning first=68 second=46 amount=-2
kerning first=68 second=47 amount=-2
kerning first=68 second=63 amount=-1
kerning first=68 second=65 amount=-1
kerning first=68 second=86 amount=-2
kerning first=68 second=87 amount=-1
kerning first=68 second=89 amount=-2
kerning first=68 second=104 amount=-1
kerning first=69 second=106 amount=-2
kerning first=70 second=44 amount=-5
kerning first=70 second=46 amount=-5
kerning first=70 second=47 amount=-4
kerning first=70 second=65 amount=-4
kerning first=70 second=97 amount=-2
kerning first=70 second=101 amount=-2
kerning first=70 second=105 amount=-2
kerning first=70 second=111 amount=-2
kerning first=70 second=114 amount=-1
kerning first=70 second=117 amount=-2
kerning first=70 second=121 amount=-2
kerning first=71 second=44 amount=-1
kerning first=71 second=46 amount=-1
kerning first=71 second=47 amount=-1
kerning first=71 second=97 amount=-1
kerning first=71 second=105 amount=-1
kerning first=71 second=110 amount=-1
kerning first=71 second=114 amount=-1
kerning first=71 second=117 amount=-1
kerning first=71 second=121 amount=-1
kerning first=73 second=63 amount=-1
kerning first=73 second=99 amount=-1
kerning first=73 second=100 amount=-1
kerning first=73 second=101 amount=-1
kerning first=73 second=103 amount=-1
kerning first=73 second=106 amount=-2
kerning first=73 second=109 amount=-1
kerning first=73 second=111 amount=-1
kerning first=73 second=112 amount=-1
kerning first=73 second=116 amount=-1
kerning first=73 second=117 amount=-1
kerning first=73 second=118 amount=-1
kerning first=73 second=119 amount=-1
kerning first=73 second=121 amount=-1
kerning first=74 second=44 amount=-3
kerning first=74 second=46 amount=-2
kerning first=74 second=47 amount=-3
kerning first=74 second=65 amount=-2
kerning first=74 second=97 amount=-2
kerning first=74 second=101 amount=-2
kerning first=74 second=105 amount=-1
kerning first=74 second=111 amount=-2
kerning first=74 second=117 amount=-1
kerning first=74 second=121 amount=-1
kerning first=75 second=63 amount=-1
kerning first=75 second=67 amount=-1
kerning first=75 second=71 amount=-1
kerning first=75 second=79 amount=-1
kerning first=75 second=81 amount=-1
kerning first=75 second=101 amount=-1
kerning first=75 second=111 amount=-1
kerning first=75 second=117 amount=-1
kerning first=75 second=118 amount=-1
kerning first=75 second=119 amount=-1
kerning first=75 second=121 amount=-1
kerning first=76 second=63 amount=-2
kerning first=76 second=84 amount=-2
kerning first=76 second=85 amount=-2
kerning first=76 second=86 amount=-4
kerning first=76 second=87 amount=-2
kerning first=76 second=89 amount=-3
kerning first=76 second=106 amount=-2
kerning first=76 second=117 amount=-1
kerning first=76 second=119 amount=-2
kerning first=76 second=121 amount=-1
kerning first=77 second=106 amount=-2
kerning first=77 second=117 amount=-1
kerning first=77 second=121 amount=-1
kerning first=78 second=44 amount=-1
kerning first=78 second=46 amount=-1
kerning first=78 second=47 amount=-1
kerning first=78 second=65 amount=-1
kerning first=78 second=97 amount=-1
kerning first=78 second=101 amount=-1
kerning first=78 second=105 amount=-1
kerning first=78 second=111 amount=-1
kerning first=78 second=117 amount=-1
kerning first=78 second=121 amount=-1
kerning first=79 second=44 amount=-2
kerning first=79 second=46 amount=-2
kerning first=79 second=47 amount=-2
kerning first=79 second=65 amount=-2
kerning first=79 second=86 amount=-2
kerning first=79 second=87 amount=-1
kerning first=79 second=89 amount=-2
kerning first=79 second=98 amount=-1
kerning first=79 second=104 amount=-1
kerning first=79 second=106 amount=-2
kerning first=79 second=107 amount=-1
kerning first=79 second=108 amount=-1
kerning first=80 second=44 amount=-4
kerning first=80 second=46 amount=-4
kerning first=80 second=47 amount=-3
kerning first=80 second=49 amount=-1
kerning first=80 second=65 amount=-3
kerning first=80 second=97 amount=-1
kerning first=80 second=101 amount=-1
kerning first=80 second=111 amount=-1
kerning first=80 second=115 amount=-1
kerning first=81 second=46 amount=-1
kerning first=81 second=47 amount=-1
kerning first=81 second=65 amount=-1
kerning first=81 second=85 amount=-1
kerning first=81 second=86 amount=-2
kerning first=81 second=87 amount=-2
kerning first=81 second=89 amount=-2
kerning first=81 second=93 amount=-1
kerning first=81 second=97 amount=-1
kerning first=81 second=125 amount=-1
kerning first=82 second=63 amount=-2
kerning first=82 second=67 amount=-1
kerning first=82 second=71 amount=-1
kerning first=82 second=79 amount=-1
kerning first=82 second=81 amount=-1
kerning first=82 second=84 amount=-2
kerning first=82 second=85 amount=-2
kerning first=82 second=86 amount=-3
kerning first=82 second=87 amount=-3
kerning first=82 second=89 amount=-3
kerning first=82 second=101 amount=-1
kerning first=82 second=111 amount=-1
kerning first=82 second=117 amount=-2
kerning first=82 second=121 amount=-1
kerning first=83 second=44 amount=-1
kerning first=83 second=46 amount=-1
kerning first=83 second=47 amount=-1
kerning first=83 second=105 amount=-1
kerning first=83 second=106 amount=-2
kerning first=83 second=109 amount=-1
kerning first=83 second=110 amount=-1
kerning first=83 second=114 amount=-1
kerning first=83 second=116 amount=-1
kerning first=83 second=117 amount=-1
kerning first=83 second=118 amount=-1
kerning first=83 second=119 amount=-1
kerning first=83 second=121 amount=-1
kerning first=84 second=44 amount=-2
kerning first=84 second=45 amount=-1
kerning first=84 second=46 amount=-1
kerning first=84 second=47 amount=-2
kerning first=84 second=58 amount=-1
kerning first=84 second=59 amount=-1
kerning first=84 second=65 amount=-1
kerning first=84 second=97 amount=-2
kerning first=84 second=101 amount=-1
kerning first=84 second=109 amount=-1
kerning first=84 second=111 amount=-1
kerning first=84 second=115 amount=-1
kerning first=84 second=121 amount=-1
kerning first=84 second=122 amount=-1
kerning first=85 second=44 amount=-2
kerning first=85 second=46 amount=-2
kerning first=85 second=47 amount=-3
kerning first=85 second=65 amount=-2
kerning first=85 second=97 amount=-1
kerning first=85 second=99 amount=-1
kerning first=85 second=100 amount=-1
kerning first=85 second=102 amount=-1
kerning first=85 second=103 amount=-2
kerning first=85 second=105 amount=-1
kerning first=85 second=109 amount=-1
kerning first=85 second=110 amount=-1
kerning first=85 second=112 amount=-1
kerning first=85 second=114 amount=-1
kerning first=85 second=115 amount=-1
kerning first=85 second=116 amount=-1
kerning first=85 second=118 amount=-1
kerning first=85 second=120 amount=-1
kerning first=85 second=121 amount=-1
kerning first=85 second=122 amount=-2
kerning first=86 second=44 amount=-4
kerning first=86 second=45 amount=-2
kerning first=86 second=46 amount=-4
kerning first=86 second=47 amount=-4
kerning first=86 second=58 amount=-2
kerning first=86 second=59 amount=-2
kerning first=86 second=65 amount=-4
kerning first=86 second=67 amount=-2
kerning first=86 second=71 amount=-2
kerning first=86 second=79 amount=-1
kerning first=86 second=81 amount=-1
kerning first=86 second=97 amount=-3
kerning first=86 second=101 amount=-3
kerning first=86 second=105 amount=-2
kerning first=86 second=111 amount=-3
kerning first=86 second=114 amount=-2
kerning first=86 second=117 amount=-2
kerning first=86 second=121 amount=-2
kerning first=87 second=44 amount=-3
kerning first=87 second=45 amount=-2
kerning first=87 second=46 amount=-3
kerning first=87 second=47 amount=-3
kerning first=87 second=58 amount=-2
kerning first=87 second=59 amount=-2
kerning first=87 second=65 amount=-3
kerning first=87 second=67 amount=-1
kerning first=87 second=71 amount=-1
kerning first=87 second=79 amount=-1
kerning first=87 second=81 amount=-1
kerning first=87 second=97 amount=-2
kerning first=87 second=100 amount=-2
kerning first=87 second=101 amount=-2
kerning first=87 second=105 amount=-1
kerning first=87 second=109 amount=-1
kerning first=87 second=111 amount=-2
kerning first=87 second=114 amount=-1
kerning first=87 second=116 amount=-1
kerning first=87 second=117 amount=-1
kerning first=87 second=121 amount=-1
kerning first=88 second=63 amount=-1
kerning first=88 second=67 amount=-1
kerning first=88 second=71 amount=-1
kerning first=88 second=79 amount=-1
kerning first=88 second=81 amount=-1
kerning first=88 second=117 amount=-1
kerning first=88 second=121 amount=-1
kerning first=89 second=44 amount=-2
kerning first=89 second=46 amount=-2
kerning first=89 second=47 amount=-2
kerning first=89 second=58 amount=-1
kerning first=89 second=59 amount=-1
kerning first=89 second=65 amount=-2
kerning first=89 second=67 amount=-1
kerning first=89 second=71 amount=-1
kerning first=89 second=79 amount=-1
kerning first=89 second=81 amount=-1
kerning first=89 second=83 amount=-1
kerning first=89 second=97 amount=-2
kerning first=89 second=99 amount=-2
kerning first=89 second=100 amount=-2
kerning first=89 second=101 amount=-2
kerning first=89 second=105 amount=-1
kerning first=89 second=111 amount=-1
kerning first=89 second=113 amount=-2
kerning first=89 second=116 amount=-1
kerning first=89 second=117 amount=-1
kerning first=89 second=118 amount=-1
kerning first=90 second=63 amount=-1
kerning first=97 second=63 amount=-2
kerning first=97 second=98 amount=-1
kerning first=97 second=103 amount=-1
kerning first=97 second=112 amount=-1
kerning first=97 second=116 amount=-1
kerning first=97 second=118 amount=-1
kerning first=97 second=119 amount=-1
kerning first=97 second=121 amount=-1
kerning first=98 second=44 amount=-1
kerning first=98 second=46 amount=-1
kerning first=98 second=47 amount=-1
kerning first=98 second=63 amount=-1
kerning first=98 second=98 amount=-1
kerning first=98 second=108 amount=-1
kerning first=98 second=117 amount=-1
kerning first=98 second=118 amount=-1
kerning first=98 second=119 amount=-1
kerning first=98 second=121 amount=-1
kerning first=99 second=47 amount=-1
kerning first=99 second=63 amount=-2
kerning first=99 second=104 amount=-1
kerning first=99 second=107 amount=-1
kerning first=99 second=108 amount=-1
kerning first=100 second=63 amount=-1
kerning first=100 second=118 amount=-1
kerning first=100 second=119 amount=-1
kerning first=100 second=121 amount=-1
kerning first=101 second=47 amount=-1
kerning first=101 second=63 amount=-2
kerning first=101 second=98 amount=-1
kerning first=101 second=103 amount=-1
kerning first=101 second=112 amount=-1
kerning first=101 second=118 amount=-1
kerning first=101 second=119 amount=-1
kerning first=101 second=121 amount=-1
kerning first=102 second=44 amount=-2
kerning first=102 second=46 amount=-1
kerning first=102 second=47 amount=-2
kerning first=102 second=97 amount=-2
kerning first=102 second=101 amount=-2
kerning first=102 second=102 amount=-1
kerning first=102 second=105 amount=-1
kerning first=102 second=106 amount=-3
kerning first=102 second=111 amount=-2
kerning first=103 second=63 amount=-1
kerning first=103 second=97 amount=-1
kerning first=103 second=101 amount=-1
kerning first=103 second=111 amount=-1
kerning first=104 second=63 amount=-2
kerning first=104 second=111 amount=-1
kerning first=104 second=121 amount=-1
kerning first=105 second=63 amount=-2
kerning first=105 second=118 amount=-2
kerning first=107 second=63 amount=-2
kerning first=107 second=101 amount=-1
kerning first=107 second=111 amount=-1
kerning first=107 second=121 amount=-1
kerning first=108 second=63 amount=-2
kerning first=108 second=84 amount=-2
kerning first=108 second=86 amount=-3
kerning first=108 second=87 amount=-3
kerning first=108 second=89 amount=-3
kerning first=108 second=111 amount=-1
kerning first=108 second=118 amount=-3
kerning first=108 second=119 amount=-3
kerning first=108 second=121 amount=-1
kerning first=109 second=63 amount=-2
kerning first=109 second=117 amount=-1
kerning first=109 second=121 amount=-1
kerning first=110 second=63 amount=-2
kerning first=110 second=111 amount=-1
kerning first=110 second=117 amount=-2
kerning first=110 second=118 amount=-2
kerning first=110 second=121 amount=-1
kerning first=111 second=44 amount=-1
kerning first=111 second=46 amount=-1
kerning first=111 second=47 amount=-1
kerning first=111 second=63 amount=-1
kerning first=111 second=118 amount=-1
kerning first=111 second=119 amount=-1
kerning first=111 second=121 amount=-1
kerning first=112 second=44 amount=-1
kerning first=112 second=46 amount=-1
kerning first=112 second=47 amount=-1
kerning first=112 second=63 amount=-1
kerning first=112 second=119 amount=-1
kerning first=112 second=121 amount=-1
kerning first=113 second=63 amount=-2
kerning first=114 second=44 amount=-2
kerning first=114 second=45 amount=-1
kerning first=114 second=46 amount=-2
kerning first=114 second=47 amount=-2
kerning first=114 second=63 amount=-1
kerning first=114 second=97 amount=-1
kerning first=114 second=99 amount=-1
kerning first=114 second=100 amount=-1
kerning first=114 second=101 amount=-1
kerning first=114 second=103 amount=-1
kerning first=114 second=107 amount=-1
kerning first=114 second=108 amount=-1
kerning first=114 second=111 amount=-1
kerning first=115 second=47 amount=-1
kerning first=115 second=63 amount=-1
kerning first=116 second=63 amount=-2
kerning first=117 second=63 amount=-2
kerning first=118 second=44 amount=-4
kerning first=118 second=46 amount=-4
kerning first=118 second=47 amount=-3
kerning first=118 second=59 amount=-1
kerning first=118 second=63 amount=-1
kerning first=118 second=97 amount=-1
kerning first=118 second=101 amount=-1
kerning first=118 second=111 amount=-1
kerning first=119 second=44 amount=-3
kerning first=119 second=46 amount=-3
kerning first=119 second=47 amount=-3
kerning first=119 second=59 amount=-1
kerning first=119 second=63 amount=-1
kerning first=119 second=97 amount=-1
kerning first=119 second=99 amount=-1
kerning first=119 second=100 amount=-1
kerning first=119 second=101 amount=-1
kerning first=119 second=104 amount=-1
kerning first=119 second=111 amount=-1
kerning first=120 second=63 amount=-2
kerning first=120 second=99 amount=-1
kerning first=120 second=101 amount=-1
kerning first=120 second=111 amount=-1
kerning first=120 second=113 amount=-1
kerning first=121 second=44 amount=-4
kerning first=121 second=46 amount=-4
kerning first=121 second=47 amount=-3
kerning first=121 second=59 amount=-1
kerning first=121 second=63 amount=-1
kerning first=121 second=97 amount=-1
kerning first=121 second=99 amount=-1
kerning first=121 second=100 amount=-1
kerning first=121 second=101 amount=-1
kerning first=121 second=111 amount=-1
kerning first=121 second=113 amount=-1
kerning first=122 second=63 amount=-1
kerning first=183 second=49 amount=-1
kerning first=183 second=50 amount=-1
kerning first=183 second=51 amount=-2
kerning first=183 second=52 amount=-1
kerning first=183 second=53 amount=-2
kerning first=183 second=55 amount=-2
kerning first=183 second=56 amount=-2
kerning first=187 second=44 amount=-4
kerning first=187 second=46 amount=-4
kerning first=187 second=97 amount=-1
kerning first=187 second=105 amount=-1
kerning first=187 second=108 amount=-1
